13017 372406 443
69118 492434 449
100951 700244 509
435459 594840 470
614694 68716 470
864437 143545 525
308945 713777 509
174582 215265 373
25339 577944 470
493690 61511 449
785030 827991 468
416569 549329 470
338635 21239 443
528921 181267 470
511759 596356 470
340907 900897 525
834661 926015 525
280583 326090 389
491300 93986 449
19775 700072 509
540682 422413 470
258317 949610 525
638184 670849 442
454666 407162 449
617731 243454 470
553107 673996 509
736795 350716 509
208795 345443 443
602887 218216 470
695341 336552 509
252328 471894 449
926451 788605 525
208672 314410 443
341411 307653 384
228790 76189 386
983703 56047 525
108123 93295 354
725390 896670 525
421945 698979 509
842308 847742 419
391655 418012 449
810391 948180 525
554119 248698 470
740879 608900 509
783805 584344 509
490811 771976 509
368131 707628 509
843745 918679 476
126652 556772 470
403511 98401 443
383147 525884 470
799065 429293 509
557461 137695 470
751067 558626 509
85619 857962 525
757610 891396 525
707046 339010 509
217831 793772 509
251812 357540 441
295769 971685 525
942901 784066 525
725209 879539 525
234359 875810 525
329668 795242 509
982324 875152 507
877663 760506 525
734194 836810 468
177143 906579 525
772212 658279 504
93427 596268 470
523158 987741 525
740990 672363 504
356015 213996 443
291640 302299 371
410449 295634 449
203383 388823 443
47703 703603 509
574724 108664 470
909626 687908 525
690238 495133 509
463309 116262 449
110937 274419 443
670746 935670 525
353597 306900 441
172051 644590 509
301865 574105 470
505879 261016 449
726856 458573 509
973589 231918 525
299146 775617 509
2024 644418 509
431683 205621 449
410135 48389 449
505414 387049 449
195850 509182 449
115015 298082 443
683796 683074 336
52007 710744 509
369770 53519 443
681860 457340 509
290567 795654 509
50825 756890 509
452544 189600 449
718090 15019 509
568634 139 470
189880 600944 470
457029 290718 449
559640 192340 470
946523 457972 525
107337 170627 383
538268 516615 439
977717 872942 507
776339 885783 525
456803 708152 509
73275 742987 509
468474 33963 449
276860 30035 443
157996 487397 449
129752 709524 509
426557 551366 470
807941 674550 504
569368 580636 390
45730 118303 354
704409 647498 442
735974 292079 509
35979 365711 443
396414 28023 443
142939 133127 375
908970 133882 525
586212 642638 509
309931 290175 371
869276 259448 525
468075 409649 449
220248 195285 386
49564 220014 386
254387 230676 381
522873 943003 525
663444 174533 509
438464 279501 449
739648 367370 509
87245 795408 509
239711 560876 470
148275 915062 525
979748 312620 525
629120 976345 525
895985 489552 525
717111 755317 424
763928 296373 509
27243 213014 383
436135 721054 509
373857 650380 509
153594 148517 370
416242 621830 470
80812 976580 525
982919 462739 525
634816 705296 504
515531 197496 470
489219 444648 444
653652 38991 509
630654 315542 509
683630 650513 442
524970 128715 470
905806 906170 264
514173 706945 509
381638 851078 525
812352 534558 509
820538 814558 450
178654 750139 509
595919 306229 470
800275 639014 504
478691 534283 470
575479 316783 470
466995 75763 449
846741 200414 525
55637 741259 509
707433 729069 411
565621 941966 525
36995 661020 509
163221 233591 443
472678 773848 509
217008 116791 386
262695 873071 525
844915 828844 525
460747 567058 470
939908 104787 525
404853 940976 525
652674 195985 509
625516 26474 470
462432 507088 426
720393 500910 509
850345 755975 525
679112 39594 509
285147 26895 443
786051 520470 509
656300 826943 504
645948 759520 504
662307 648562 429
773786 66402 509
470389 745337 509
396235 71755 443
