1 10 20
100 200 125
201 210 89
900 1000 174
21 9336 262
1422 9932 262
1737 6020 238
1147 429 179
836 1884 182
1233 6355 262
1998 1675 180
1699 1420 180
1959 6980 262
1168 3276 217
766 5471 238
1768 5668 238
1935 5090 238
1388 4955 238
1254 8327 262
1566 6817 262
1218 9860 262
1721 7113 262
28 2906 209
1071 7534 262
680 6955 262
613 8022 262
1208 9531 262
780 8859 262
765 7063 262
319 4037 238
1657 1318 172
1341 4433 238
786 1467 182
321 3552 217
746 7198 262
1397 9327 262
1196 6019 238
1052 8747 262
339 2731 209
378 2406 183
1372 6816 262
286 3924 238
502 2786 209
568 2396 183
365 3094 217
1702 6216 262
123 3542 217
762 7617 262
1538 7471 262
1732 49 182
566 7951 262
868 6006 238
1818 7074 262
1989 4773 238
830 8986 262
1413 5351 238
41 5830 238
1091 3551 217
1175 7417 262
419 5430 238
52 4853 238
957 4274 238
1124 2800 209
57 5622 238
1250 3176 217
252 9513 262
450 2829 209
1840 118 182
864 3792 238
316 9473 262
475 8472 262
728 6540 262
1643 9754 262
187 7866 262
1844 9642 262
223 2919 217
1059 2420 183
1201 5304 238
1900 3213 217
1812 4057 238
30 4406 238
473 6746 262
1277 7296 262
1256 5196 238
544 3442 217
365 7206 262
153 6653 262
1583 4015 238
27 2520 209
443 1961 182
1242 7855 262
1658 2516 209
1072 8679 262
1596 4520 238
1864 6074 238
999 9278 262
1758 5121 238
135 7120 262
825 4463 238
1504 9740 262
766 6451 262
1785 9564 262
1705 9742 262
705 5735 238
1717 5818 238
344 7784 262
1398 469 182
253 901 179
1034 5196 238
459 7100 262
1114 7501 262
502 5721 238
1685 2929 217
482 1623 182
1616 7219 262
1335 5949 238
842 916 179
1699 579 182
1095 8994 262
49 8702 262
908 9781 262
1274 8642 262
1840 5476 238
1660 4664 238
106 6916 262
1128 4461 238
416 3630 217
1900 8438 262
736 9061 262
1318 9592 262
1334 5936 238
1076 4977 238
1973 9678 262
1880 2442 183
1151 7323 262
476 6366 262
1120 8129 262
1116 4676 238
458 7474 262
1990 7781 262
1268 4025 238
1375 762 182
700 3706 217
1240 724 182
1500 5080 238
1814 8963 262
1419 9169 262
1083 2296 183
1561 1778 180
378 6227 262
1018 1882 182
50 1372 182
1944 8792 262
1058 4499 238
545 7073 262
1402 5330 238
707 8928 262
1738 3860 238
1555 7533 262
1503 9739 262
803 2114 182
1688 175 182
1656 7714 262
207 7422 262
1863 3685 217
1049 8435 262
1258 3228 217
1621 2526 209
726 5259 238
1790 8305 262
524 6846 262
417 437 134
1708 6262 262
149 990 179
556 5265 238
1621 1840 180
1362 9417 262
663 4895 238
171 4419 238
1834 6411 262
643 5006 238
1864 9441 262
692 5230 238
650 6210 262
412 4736 238
718 9631 262
16 1474 182
362 2014 182
1402 8045 262
1895 5329 238
1709 6030 238
458 9811 262
1393 1336 159
868 3285 217
1743 5244 238
410 4147 238
1624 1927 180
1827 4619 238
342 8788 262
599 9907 262
1495 6906 262
331 8533 262
963 2034 182
790 6183 262
1764 6513 262
1178 4160 238
1394 4604 238
380 3096 217
40 2877 209
1903 170 182
202 5409 238
1729 9956 262
1175 5536 238
710 9273 262
844 2458 183
522 7328 262
576 572 106
650 9737 262
273 4812 238
574 862 171
1944 2442 183
1337 9784 262
633 8974 262
1665 6613 262
597 2056 182
1244 4155 238
787 3768 238
151 2717 209
82 4049 238
1704 9587 262
1881 4694 238
1390 8183 262
1440 2891 209
41 6320 262
1456 1638 172
1271 7275 262
1891 3345 217
530 2023 182
862 9008 262
1393 8346 262
1020 6540 262
1206 7748 262
1364 6543 262
358 5271 238
1205 1235 164
1629 6763 262
701 9187 262
1477 1128 182
263 2866 209
737 3675 217
1982 8069 262
1934 3257 217
1356 8815 262
1565 2415 183
