925935 575371 525
740265 631524 504
917089 235579 525
963696 667394 525
566544 959427 525
390316 192010 443
741176 838575 525
430721 952301 525
869344 398455 525
753147 568857 509
621695 151085 470
680702 167267 509
728612 67164 509
797168 29471 509
986293 646586 525
493482 435183 444
41401 538227 470
132685 755874 509
499874 660950 509
640198 673654 442
493375 262182 449
209822 597898 470
952969 588207 525
584090 54426 470
218808 77740 386
233324 754752 509
819998 543342 509
305929 802088 509
751153 907574 525
747017 60187 509
9695 33028 308
736843 880607 525
49127 459850 449
933425 601027 525
743347 518117 509
996350 360608 525
19980 146084 375
578965 353283 470
993940 678633 525
337915 591571 470
806538 286984 509
39464 876299 525
892559 32364 525
325282 612139 470
253751 165564 443
309794 599059 470
240365 434101 449
538130 771272 509
201238 678481 509
349080 324700 441
720496 825879 468
189278 972740 525
669674 118587 509
42522 593934 470
999943 490005 525
112245 664612 509
741020 447950 509
873110 120200 525
467043 498370 426
34123 469308 449
682795 876007 525
626488 184709 509
127413 634111 509
75498 682703 509
183531 451334 449
861015 90687 525
713443 247045 509
878401 514180 525
534633 716323 509
473849 527800 470
739656 611586 509
186393 140982 383
640798 49356 509
885456 672238 525
863488 941821 507
733479 405805 509
262554 155100 443
780897 734559 468
425691 932684 525
76279 755537 509
342552 925152 525
233188 769936 509
292767 110262 443
59803 348464 443
501804 386508 449
272122 950283 525
646113 595114 509
325621 142089 443
164106 942747 525
800282 910365 525
738471 301739 509
646700 427498 509
758806 468031 509
648148 794738 504
514410 571107 452
873879 473982 525
284292 114939 443
851378 840500 419
478818 440716 444
557370 135578 470
119844 557082 470
2432 944281 525
519184 90447 470
866712 268233 525
433149 357597 449
990562 861578 507
512919 805042 509
481553 592576 470
541979 734656 509
726779 545096 509
102971 794044 509
383663 457307 449
556920 150557 470
72789 825692 509
237125 647752 509
314375 226740 443
458539 593463 470
440483 151938 449
19389 197635 383
582383 619915 447
118070 920206 525
381798 781795 509
693359 568139 509
409059 886867 525
319871 226558 443
279198 959239 525
285403 783705 509
907051 89487 525
598725 801000 509
474410 5603 449
150559 170079 383
711068 520902 509
973758 491583 525
827272 433474 509
228167 109387 386
264488 154787 443
653625 301001 509
826612 474886 509
115869 339950 443
667182 540859 509
649778 15692 509
465276 89150 449
573053 700700 509
465085 771646 509
999412 729095 525
546260 331356 470
64874 545476 470
39151 872343 525
353315 799471 509
48811 658551 509
26709 282 308
524884 328063 470
173204 556046 470
606219 718605 509
436037 609884 470
467224 927276 525
596781 785584 509
77825 77537 245
379247 914956 525
645781 374968 509
986871 576096 525
125950 257552 443
501780 421328 444
483881 802610 509
11429 861331 525
182421 571549 470
508675 151548 449
333093 710309 509
286676 482551 449
133891 220506 386
29784 351797 443
173816 363716 443
142430 542970 470
425875 659751 509
21311 947856 525
692140 139037 509
685697 760367 504
167519 56384 383
627591 854963 525
265154 77458 443
878349 273306 525
861782 402777 525
442201 164481 449
401308 928420 525
409790 717388 509
796814 353349 509
486693 862742 525
754699 348406 509
263018 98993 443
529526 900671 525
371060 453347 449
38140 165244 383
298812 907363 525
265337 150828 443
758055 376443 509
460194 490114 444
81422 36424 351
311365 393891 441
279669 935989 525
80901 547102 470
1 10 20
100 200 125
201 210 89
900 1000 174
